[
  {
    "_id": 1,
    "author": "dave",
    "score": 80,
    "views": 100
  },
  {
    "_id": 2,
    "author": "dave",
    "score": 85,
    "views": 521
  },
  {
    "_id": 3,
    "author": "ahn",
    "score": 60,
    "views": 1000
  },
  {
    "_id": 4,
    "author": "li",
    "score": 55,
    "views": 5000
  },
  {
    "_id": 5,
    "author": "annT",
    "score": 60,
    "views": 50
  },
  {
    "_id": 6,
    "author": "li",
    "score": 94,
    "views": 999
  },
  {
    "_id": 7,
    "author": "ty",
    "score": 95,
    "views": 1000
  }
]
